2 Работа со строками | Зимняя школа АйсДан 2021: скрейпинг и анализ текстовых данных
…
Необходимо избавиться от лишних табуляций \t и символов. Это текст на русском языке, нам же не нужны символы латинского алфавита? Лишние можно просто удалить или заменить на пробел.

Вы точно удалили все ненужные символы? Составьте сортированный список всех символов. Это можно сделать, временно склеив обратно в единый текст все параграфы. Потом с помощью str_split() разделить все знаки по пустой строке "“. У вас получится список, переделайте его в вектор! Из вектора можно составить таблицу частотности символов, а из нее вытащить список названий строк и отсортировать его. NB! Не удаляйте символ переноса строки”-", если хотите сделать п.6.

Проверьте длину строк. У вас есть пустые строки? Если есть, их можно удалить.
6*. Задание со звездочкой, выполнение опционально. Теперь надо разобраться с переносами строк, которые есть в печатных книгах, но нет в электронных текстах. Можно использовать цикл if: если предыдущая строка оканчивается на “-,” то создай новую строку, склеенную из предыдущей и этой. В противном случае, создай новую строку из предыдущей и этой, разделенную пробелом. Не забудьте обработать крайние значения (первая и последняя строки).

Задание 2

Подготовим наши таблицы с фанфиками к обработке.

sample %>% print()

## # A tibble: 1,000 x 10
##       X1 link   title   author_link  author  page fandom subtitle  text    likes
##    <dbl> <chr>  <chr>   <chr>        <chr>  <dbl> <chr>  <chr>     <chr>   <dbl>
##  1     1 /read… Сгорая… /authors/17… Mrs. …    63 Неукр… Подкидыш  "Осенн…    27
##  2     2 /read… Объять… /authors/10… Wales    131 Неукр… <NA>      "На<U+…   864
##  3     3 /read… Волосы… /authors/51… Night…     1 Неукр… Введение  "Миг з…    47
##  4     4 /read… Провер… /authors/38… Cold-…    52 Неукр… Семья     "На ут…   260
##  5     5 /read… Поменя… /authors/57… Aiky       4 Неукр… Глава 9 … "r / A…   282
##  6     6 /read… Пепел … /authors/39… Sh.R      79 Неукр… Вместо э… "— Так…   213
##  7     7 /read… Собств… /authors/14… Aquam…    86 Неукр… Глава 15… "Когда…   587
##  8     8 /read… И тёмн… /authors/45… Notyo…    96 Неукр… <NA>      "Что е…    29
##  9     9 /read… Я буду… /authors/54… Trish…    20 Неукр… Часть 72  "Сичен…   357
## 10    10 /read… Мальчи… /authors/19… Lorie     33 Неукр… Гарри По… "Планы…  3141
## # … with 990 more rows
…
